{
  "$schema": "http://json-schema.org/draft-07/schema#",
  "title": "knife",
  "type": "array",
  "items": {
    "type": "object",
    "properties": {
      "type": {
        "type": "string",
        "description": "type of knife"
      },
      "handly": {
        "type": "string",
        "description": "one or two handle",
        "pattern": "one-handle|two-handle"
      },
      "origin": {
        "type": "string",
        "description": "where created"
      },
      "visual": {
        "type": "object",
        "properties": {
          "length": {
            "type": "integer",
            "description": "length of knife",
            "minimum": 15
          },
          "width": {
            "type": "integer",
            "description": "width of knife",
            "minimum": 15
          },
          "material": {
            "type": "string",
            "description": "material of knife"
          },
          "handles": {
            "type": "object",
            "properties": {
              "handlesType": {
                "type": "string"
              },
              "handleSubtype": {
                "type": "string"
              }
            },
            "required": [
              "handlesType"
            ],
            "if": {
              "properties": {
                "handlesType": {
                  "enum": [
                    "wooden"
                  ]
                }
              },
              "then": {
                "required": [
                  "handleSubtype"
                ]
              }
            }
          },
          "bloodFlows": {
            "type": "boolean",
            "description": "availability of blood flows out"
          }
        },
        "required": [
          "length",
          "width",
          "material",
          "handles",
          "bloodFlows"
        ]
      },
      "value": {
        "type": "string",
        "pattern": "no collectible|collectible"
      }
    },
    "required": [
      "type",
      "handly",
      "origin",
      "visual",
      "value"
    ]
  }
}